{
    "message": "success",
    "result": {
        "meta": {
            "request_id": 1234,
            "timestamp": "2025-09-05",
            "pagination": {
                "total": 100,
                "per_page": 10,
                "current_page": 1,
                "last_page": 10,
                "next_page_url": "page=2",
                "prev_page_url": null
            }
        },
        "data": [
            {
                "id": 1,
                "title": "My",
                "description": "lorem ipsum dummy text",
                "color": "calendar color",
                "calendar_type": "direct_assign",
                "calendar_type_text": "Direct Assign",
                "calendar_type_sub_text": "Power Ranking",
                "appointments_count": 8,
                "setters_count": 9,
                "closers_count": 17,
                "dispatchers_count": 0,
                "admins_count": 3,
                "booking_url": "my-calendar-662",
                "status": 1,
                "share_template": "html template"
            },
            {
                "id": 2,
                "title": "Team",
                "description": "lorem ipsum dummy text",
                "color": "calendar color",
                "calendar_type": "direct_assign",
                "calendar_type_text": "Direct Assign",
                "calendar_type_sub_text": "Power Ranking",
                "appointments_count": 6,
                "setters_count": 12,
                "closers_count": 21,
                "dispatchers_count": 0,
                "admins_count": 3,
                "booking_url": "team-calendar-663",
                "status": 1,
                "share_template": "html template"
            },
            {
                "id": 3,
                "title": "Profit",
                "description": "lorem ipsum dummy text",
                "color": "calendar color",
                "calendar_type": "direct_assign",
                "calendar_type_text": "Direct Assign",
                "calendar_type_sub_text": "Power Ranking",
                "appointments_count": 5,
                "setters_count": 10,
                "closers_count": 9,
                "dispatchers_count": 0,
                "admins_count": 1,
                "booking_url": "profit-planner-664",
                "status": 0,
                "share_template": "html template"
            },
            {
                "id": 4,
                "title": "Strategic",
                "description": "lorem ipsum dummy text",
                "color": "calendar color",
                "calendar_type": "dispatcher",
                "calendar_type_text": "Dispatcher",
                "calendar_type_sub_text": "Power Ranking",
                "appointments_count": 11,
                "setters_count": 13,
                "closers_count": 6,
                "dispatchers_count": 8,
                "admins_count": 2,
                "booking_url": "strategi-schedule-665",
                "status": 1,
                "share_template": "html template"
            },
            {
                "id": 5,
                "title": "The Growth Agenda",
                "description": "lorem ipsum dummy text",
                "color": "calendar color",
                "calendar_type": "direct_assign",
                "calendar_type_text": "Direct Assign",
                "calendar_type_sub_text": "Power Ranking",
                "appointments_count": 13,
                "setters_count": 14,
                "closers_count": 9,
                "dispatchers_count": 0,
                "admins_count": 3,
                "booking_url": "the-growth-agenda-666",
                "status": 1,
                "share_template": "html template"
            },
            {
                "id": 6,
                "title": "Visionary",
                "description": "lorem ipsum dummy text",
                "color": "calendar color",
                "calendar_type": "dispatcher",
                "calendar_type_text": "Dispatcher",
                "calendar_type_sub_text": "Power Ranking",
                "appointments_count": 10,
                "setters_count": 13,
                "closers_count": 4,
                "dispatchers_count": 4,
                "admins_count": 6,
                "booking_url": "visionary-ventures-calendar-663",
                "status": 1,
                "share_template": "html template"
            },
            {
                "id": 7,
                "title": "Enterprise",
                "description": "lorem ipsum dummy text",
                "color": "calendar color",
                "calendar_type": "round_robin",
                "calendar_type_text": "Round Robin",
                "calendar_type_sub_text": "Power Ranking",
                "appointments_count": 13,
                "setters_count": 9,
                "closers_count": 2,
                "dispatchers_count": 4,
                "admins_count": 2,
                "booking_url": "enterprise-timeline-668",
                "status": 1,
                "share_template": "html template"
            },
            {
                "id": 8,
                "title": "Goal Setter Calendar",
                "description": "lorem ipsum dummy text",
                "color": "calendar color",
                "calendar_type": "round_robin",
                "calendar_type_text": "Round Robin",
                "calendar_type_sub_text": "Power Ranking",
                "appointments_count": 10,
                "setters_count": 8,
                "closers_count": 2,
                "dispatchers_count": 0,
                "admins_count": 2,
                "booking_url": "goal-setter-calendar-669",
                "status": 1,
                "share_template": "html template"
            },
            {
                "id": 9,
                "title": "Quarterly",
                "description": "lorem ipsum dummy text",
                "color": "calendar color",
                "calendar_type": "round_robin",
                "calendar_type_text": "Round Robin",
                "calendar_type_sub_text": "Power Ranking",
                "appointments_count": 14,
                "setters_count": 11,
                "closers_count": 5,
                "dispatchers_count": 2,
                "admins_count": 2,
                "booking_url": "quarterly-success-tracker-670",
                "status": 1,
                "share_template": "html template"
            },
            {
                "id": 10,
                "title": "Business",
                "description": "lorem ipsum dummy text",
                "color": "calendar color",
                "calendar_type": "round_robin",
                "calendar_type_text": "Round Robin",
                "calendar_type_sub_text": "Power Ranking",
                "appointments_count": 10,
                "setters_count": 8,
                "closers_count": 5,
                "dispatchers_count": 0,
                "admins_count": 1,
                "booking_url": "business-milestone-calendar-663",
                "status": 1,
                "share_template": "html template"
            },
            {
                "id": 11,
                "title": "Action",
                "description": "lorem ipsum dummy text",
                "color": "calendar color",
                "calendar_type": "dispatcher",
                "calendar_type_text": "Dispatcher",
                "calendar_type_sub_text": "Power Ranking",
                "appointments_count": 9,
                "setters_count": 21,
                "closers_count": 2,
                "dispatchers_count": 12,
                "admins_count": 1,
                "booking_url": "action-plan-calendar-672",
                "status": 1,
                "share_template": "html template"
            },
            {
                "id": 12,
                "title": "Timeline",
                "description": "lorem ipsum dummy text",
                "color": "calendar color",
                "calendar_type": "round_robin",
                "calendar_type_text": "Round Robin",
                "calendar_type_sub_text": "Power Ranking",
                "appointments_count": 9,
                "setters_count": 12,
                "closers_count": 2,
                "dispatchers_count": 2,
                "admins_count": 1,
                "booking_url": "efficiency-timeline-673",
                "status": 1,
                "share_template": "html template"
            },
            {
                "id": 13,
                "title": "Performance",
                "description": "lorem ipsum dummy text",
                "color": "calendar color",
                "calendar_type": "dispatcher",
                "calendar_type_text": "Dispatcher",
                "calendar_type_sub_text": "Power Ranking",
                "appointments_count": 15,
                "setters_count": 13,
                "closers_count": 8,
                "dispatchers_count": 8,
                "admins_count": 2,
                "booking_url": "performance-tracker-calendar-676",
                "status": 1,
                "share_template": "html template"
            },
            {
                "id": 14,
                "title": "Deal",
                "description": "lorem ipsum dummy text",
                "color": "calendar color",
                "calendar_type": "dispatcher",
                "calendar_type_text": "Dispatcher",
                "calendar_type_sub_text": "Power Ranking",
                "appointments_count": 13,
                "setters_count": 10,
                "closers_count": 5,
                "dispatchers_count": 5,
                "admins_count": 2,
                "booking_url": "deal-closing-calendar-675",
                "status": 1,
                "share_template": "html template"
            }
        ]
    }
}
